﻿  Using 'git status' to determine working set for adaptive non-unity build (C:\Users\jabah\Documents\Unreal Projects\SnakeGame).
  Creating makefile for SnakeGameEditor (ini files are newer than makefile)
  Parsing headers for SnakeGameEditor
    Running UnrealHeaderTool "C:\Users\jabah\Documents\Unreal Projects\SnakeGame\SnakeGame.uproject" "C:\Users\jabah\Documents\Unreal Projects\SnakeGame\Intermediate\Build\Win64\SnakeGameEditor\Development\SnakeGameEditor.uhtmanifest" -LogCmds="loginit warning, logexit warning, logdatabase error" -Unattended -WarningsAsErrors -installed
  Reflection code generated for SnakeGameEditor in 6,6230867 seconds
  Using Visual Studio 2019 14.27.29110 toolchain (C:\Program Files (x86)\Microsoft Visual Studio\2019\Community\VC\Tools\MSVC\14.27.29110) and Windows 10.0.18362.0 SDK (C:\Program Files (x86)\Windows Kits\10).
  Building 4 actions with 4 processes...
    [1/4] SnakeBase.cpp
    [2/4] UE4Editor-SnakeGame.lib
       Creating library C:\Users\jabah\Documents\Unreal Projects\SnakeGame\Intermediate\Build\Win64\UE4Editor\Development\SnakeGame\UE4Editor-SnakeGame.lib and object C:\Users\jabah\Documents\Unreal Projects\SnakeGame\Intermediate\Build\Win64\UE4Editor\Development\SnakeGame\UE4Editor-SnakeGame.exp
    [3/4] UE4Editor-SnakeGame.dll
       Creating library C:\Users\jabah\Documents\Unreal Projects\SnakeGame\Intermediate\Build\Win64\UE4Editor\Development\SnakeGame\UE4Editor-SnakeGame.suppressed.lib and object C:\Users\jabah\Documents\Unreal Projects\SnakeGame\Intermediate\Build\Win64\UE4Editor\Development\SnakeGame\UE4Editor-SnakeGame.suppressed.exp
    [4/4] SnakeGameEditor.target
  Total time in Parallel executor: 1,53 seconds
  Total execution time: 10,62 seconds
